\relax 
\providecommand\hyper@newdestlabel[2]{}
\bibdata{./home/ndinhtuan/thesis/reference.tex}
\@writefile{toc}{\contentsline {chapter}{CH\IeC {\horn U}\IeC {\horn O}NG 2. C\IeC {\'A}C NGHI\IeC {\^E}N C\IeC {\'\UHORN }U LI\IeC {\^E}N QUAN \IeC {\DJ }\IeC {\'\ECIRCUMFLEX }N KH\IeC {\'O}A LU\IeC {\d \ACIRCUMFLEX }N}{7}{chapter*.6}}
\@writefile{toc}{\contentsline {section}{\numberline {2.1}M\IeC {\d a}ng n\IeC {\horn o}-ron nh\IeC {\^a}n t\IeC {\d a}o}{7}{section.2.1}}
\citation{cifar10}
\@writefile{lof}{\contentsline {figure}{\numberline {2.1}{\ignorespaces Caption for LOF}}{8}{figure.caption.7}}
\@writefile{toc}{\contentsline {section}{\numberline {2.2}SVR}{9}{section.2.2}}
\@writefile{toc}{\contentsline {section}{\numberline {2.3}M\IeC {\d a}ng Siamese}{9}{section.2.3}}
\@setckpt{./chapter2/chapter2}{
\setcounter{page}{10}
\setcounter{equation}{0}
\setcounter{enumi}{0}
\setcounter{enumii}{0}
\setcounter{enumiii}{0}
\setcounter{enumiv}{0}
\setcounter{footnote}{1}
\setcounter{mpfootnote}{0}
\setcounter{part}{0}
\setcounter{chapter}{2}
\setcounter{section}{3}
\setcounter{subsection}{0}
\setcounter{subsubsection}{0}
\setcounter{paragraph}{0}
\setcounter{subparagraph}{0}
\setcounter{figure}{1}
\setcounter{table}{0}
\setcounter{blindtext}{1}
\setcounter{Blindtext}{5}
\setcounter{blind@countparstart}{0}
\setcounter{blindlist}{0}
\setcounter{blindlistlevel}{0}
\setcounter{blindlist@level}{0}
\setcounter{blind@listcount}{0}
\setcounter{blind@levelcount}{0}
\setcounter{blind@randomcount}{0}
\setcounter{blind@randommax}{0}
\setcounter{blind@pangramcount}{0}
\setcounter{blind@pangrammax}{0}
\setcounter{Item}{0}
\setcounter{Hfootnote}{1}
\setcounter{bookmark@seq@number}{11}
\setcounter{ContinuedFloat}{0}
\setcounter{section@level}{1}
}
