\relax 
\providecommand\hyper@newdestlabel[2]{}
\citation{noiseaffectmodel}
\@writefile{toc}{\contentsline {chapter}{CH\IeC {\horn U}\IeC {\horn O}NG 1. GI\IeC {\'\OHORN }I THI\IeC {\d \ECIRCUMFLEX }U}{5}{chapter*.5}}
\@writefile{toc}{\contentsline {section}{\numberline {1.1}\IeC {\DJ }\IeC {\d \abreve }t v\IeC {\'\acircumflex }n \IeC {\dj }\IeC {\`\ecircumflex }}{5}{section.1.1}}
\@writefile{toc}{\contentsline {section}{\numberline {1.2}C\IeC {\'a}c m\IeC {\^o}-\IeC {\dj }un ch\IeC {\'\i }nh c\IeC {\h u}a h\IeC {\d \ecircumflex } th\IeC {\'\ocircumflex }ng}{6}{section.1.2}}
\@writefile{toc}{\contentsline {section}{\numberline {1.3}B\IeC {\'\ocircumflex } c\IeC {\d u}c kh\IeC {\'o}a lu\IeC {\d \acircumflex }n}{6}{section.1.3}}
\@setckpt{./chapter1/chapter1}{
\setcounter{page}{7}
\setcounter{equation}{0}
\setcounter{enumi}{0}
\setcounter{enumii}{0}
\setcounter{enumiii}{0}
\setcounter{enumiv}{0}
\setcounter{footnote}{0}
\setcounter{mpfootnote}{0}
\setcounter{part}{0}
\setcounter{chapter}{1}
\setcounter{section}{3}
\setcounter{subsection}{0}
\setcounter{subsubsection}{0}
\setcounter{paragraph}{0}
\setcounter{subparagraph}{0}
\setcounter{figure}{0}
\setcounter{table}{0}
\setcounter{blindtext}{1}
\setcounter{Blindtext}{5}
\setcounter{blind@countparstart}{0}
\setcounter{blindlist}{0}
\setcounter{blindlistlevel}{0}
\setcounter{blindlist@level}{0}
\setcounter{blind@listcount}{0}
\setcounter{blind@levelcount}{0}
\setcounter{blind@randomcount}{0}
\setcounter{blind@randommax}{0}
\setcounter{blind@pangramcount}{0}
\setcounter{blind@pangrammax}{0}
\setcounter{Item}{0}
\setcounter{Hfootnote}{0}
\setcounter{bookmark@seq@number}{7}
\setcounter{ContinuedFloat}{0}
\setcounter{section@level}{1}
}
