\relax 
\providecommand\hyper@newdestlabel[2]{}
\citation{crnn_for_ocr}
\citation{live_data}
\citation{tid_2015_data}
\@writefile{toc}{\contentsline {section}{\numberline {1.3}C\IeC {\'a}c v\IeC {\'\acircumflex }n \IeC {\dj }\IeC {\`\ecircumflex } g\IeC {\d \abreve }p ph\IeC {\h a}i}{3}{section.1.3}}
\@setckpt{./chapter1/chapter1_3_problem}{
\setcounter{page}{4}
\setcounter{equation}{0}
\setcounter{enumi}{0}
\setcounter{enumii}{0}
\setcounter{enumiii}{0}
\setcounter{enumiv}{0}
\setcounter{footnote}{0}
\setcounter{mpfootnote}{0}
\setcounter{part}{0}
\setcounter{chapter}{1}
\setcounter{section}{3}
\setcounter{subsection}{0}
\setcounter{subsubsection}{0}
\setcounter{paragraph}{0}
\setcounter{subparagraph}{0}
\setcounter{figure}{1}
\setcounter{table}{0}
\setcounter{blindtext}{1}
\setcounter{Blindtext}{5}
\setcounter{blind@countparstart}{0}
\setcounter{blindlist}{0}
\setcounter{blindlistlevel}{0}
\setcounter{blindlist@level}{0}
\setcounter{blind@listcount}{0}
\setcounter{blind@levelcount}{0}
\setcounter{blind@randomcount}{0}
\setcounter{blind@randommax}{0}
\setcounter{blind@pangramcount}{0}
\setcounter{blind@pangrammax}{0}
\setcounter{Item}{0}
\setcounter{Hfootnote}{0}
\setcounter{bookmark@seq@number}{8}
\setcounter{ContinuedFloat}{0}
\setcounter{pp@next@reset}{0}
\setcounter{float@type}{4}
\setcounter{pp@a@footnote}{0}
\setcounter{LT@tables}{0}
\setcounter{LT@chunks}{0}
\setcounter{section@level}{1}
}
